module github.com/awlunsfo/kubeDash

require (
	github.com/gdamore/tcell v1.1.1
	github.com/gogo/protobuf v1.2.0 // indirect
	github.com/google/btree v0.0.0-20180813153112-4030bb1f1f0c // indirect
	github.com/google/gofuzz v0.0.0-20170612174753-24818f796faf // indirect
	github.com/googleapis/gnostic v0.2.0 // indirect
	github.com/gregjones/httpcache v0.0.0-20181110185634-c63ab54fda8f // indirect
	github.com/imdario/mergo v0.3.6 // indirect
	github.com/json-iterator/go v1.1.5 // indirect
	github.com/modern-go/concurrent v0.0.0-20180306012644-bacd9c7ef1dd // indirect
	github.com/modern-go/reflect2 v1.0.1 // indirect
	github.com/peterbourgon/diskv v2.0.1+incompatible // indirect
	github.com/rivo/tview v0.0.0-20190113120821-e5e361b9d790
	github.com/spf13/pflag v1.0.3 // indirect
	golang.org/x/crypto v0.0.0-20190103213133-ff983b9c42bc // indirect
	golang.org/x/net v0.0.0-20190110200230-915654e7eabc // indirect
	golang.org/x/oauth2 v0.0.0-20190115181402-5dab4167f31c // indirect
	golang.org/x/sys v0.0.0-20190116161447-11f53e031339 // indirect
	golang.org/x/time v0.0.0-20181108054448-85acf8d2951c // indirect
	gopkg.in/inf.v0 v0.9.1 // indirect
	gopkg.in/yaml.v2 v2.2.2 // indirect
	k8s.io/api v0.0.0-20181221193117-173ce66c1e39
	k8s.io/apimachinery v0.0.0-20190118112648-001e837a0139
	k8s.io/client-go v10.0.0+incompatible
	k8s.io/klog v0.1.0 // indirect
	sigs.k8s.io/yaml v1.1.0 // indirect
)
